^D:\JANIS\EYECHARTE\DEBUG\.INTERMEDIATE\EXFUN.OBJ|D:\JANIS\EYECHARTE\DEBUG\.INTERMEDIATE\EXPERIMENTBODY.OBJ|D:\JANIS\EYECHARTE\DEBUG\.INTERMEDIATE\EYECHARTE.OBJ|D:\JANIS\EYECHARTE\DEBUG\.INTERMEDIATE\EYECHARTE.RES|D:\JANIS\EYECHARTE\DEBUG\.INTERMEDIATE\MYAUTOCALIBRATION.OBJ|D:\JANIS\EYECHARTE\DEBUG\.INTERMEDIATE\MYMANUALCALIBRATOR2.OBJ|D:\JANIS\EYECHARTE\DEBUG\.INTERMEDIATE\PEST.OBJ|D:\JANIS\EYECHARTE\DEBUG\.INTERMEDIATE\STDAFX.OBJ
D:\JANIS\EYECHARTE\DEBUG\EYECHARTE.ILK
D:\JANIS\EYECHARTE\DEBUG\EYECHARTE.EXE
D:\JANIS\EYECHARTE\DEBUG\EYECHARTE.PDB
